{
    "_id": "xldy59c3WDGYlAYs",
    "data": {
        "baseItem": null,
        "containerId": null,
        "description": {
            "value": "<p>Carried by knights who expect to spend the night in the open, this simple-looking banner is accompanied by a long cross pole from which it hangs. Usually, the banner appears to be a piece of plain cloth; when activated, it automatically adopts whatever insignia the person activating it desires.</p>\n<p><strong>Activate</strong> 10 minutes (command, envision, Interact)</p>\n<p><strong>Frequency</strong> once per day</p>\n<hr />\n<p><strong>Effect</strong> You plant the banner firmly in the ground, and a comfortable environment is created around it in a 20-foot radius. Those within the area are shielded against your choice of hot or cold temperatures, gaining the effects of 1st-level <em>@Compendium[pf2e.spells-srd.Endure Elements]{Endure Elements}</em>. The area created by the banner lasts for 8 hours or until it is removed from the ground.</p>\n<p>As part of the activation, you can choose to ward the same area with an <em>@Compendium[pf2e.spells-srd.Alarm]{Alarm}</em> spell. In addition to a mental alert for the person who Activates the banner, the alert sent by the <em>alarm</em> spell also includes an audible alarm with the sound and volume of a hand bell, which has the auditory trait. You choose the password as you decide to ward the area.</p>"
        },
        "equippedBulk": {
            "value": ""
        },
        "hardness": 0,
        "hp": {
            "brokenThreshold": 0,
            "max": 0,
            "value": 0
        },
        "level": {
            "value": 9
        },
        "negateBulk": {
            "value": "0"
        },
        "preciousMaterial": {
            "value": null
        },
        "preciousMaterialGrade": {
            "value": null
        },
        "price": {
            "value": {
                "gp": 700
            }
        },
        "quantity": 1,
        "rules": [],
        "size": "med",
        "source": {
            "value": "Pathfinder Lost Omens: Knights of Lastwall"
        },
        "stackGroup": "",
        "traits": {
            "custom": "",
            "rarity": "uncommon",
            "value": [
                "abjuration",
                "magical"
            ]
        },
        "usage": {
            "value": "held-in-one-hand"
        },
        "weight": {
            "value": "1"
        }
    },
    "img": "systems/pf2e/icons/default-icons/equipment.svg",
    "name": "Banner of the Restful",
    "type": "equipment"
}
