{
    "_id": "z5u7z3zBHZcCxfyX",
    "data": {
        "baseItem": null,
        "containerId": null,
        "description": {
            "value": "<p>This long, straight, trumpet-like instrument is made of well-polished brass and adorned with imagery of angels fighting demons or religious symbols. When played as an instrument, the busine generates powerful and harmonious notes and grants a +2 item bonus to Performance checks.</p>\n<hr />\n<p><strong>Activate</strong> <span class=\"pf2-icon\">2</span> Interact (auditory)</p>\n<p><strong>Frequency</strong> once per minute</p>\n<hr />\n<p><strong>Effect</strong> You play a few notes on the busine. Evil creatures within 60 feet who hear the notes must succeed at a @Check[type:will|dc:34|traits:auditory,incapacitation] save or be @Compendium[pf2e.conditionitems.Stunned]{Stunned} for 1 round, or 2 rounds on a critical failure; this is an incapacitation effect.</p>\n<hr />\n<p><strong>Activate</strong> <span class=\"pf2-icon\">3</span> command, envision, Interact</p>\n<p><strong>Frequency</strong> once per day</p>\n<hr />\n<p><strong>Effect</strong> You blow into the busine and conjure a celestial with the effects of a 6th-level <em>@Compendium[pf2e.spells-srd.Summon Celestial]{Summon Celestial}</em> spell, but there are no alignment restrictions to define which celestials you can call. The celestial will fight only evil creatures and leaves after all present evil creatures have been defeated or the spell's duration ends, whichever comes first. You can Sustain the Activation to extend the spell's duration, as normal. If you have a deity and the conjured celestial's alignment is one of your deity's preferred alignments, the effect functions as a normal 6th-level <em>summon celestial</em> spell instead, meaning the celestial will fight any creature, not just evil creatures, and will perform other tasks as you command.</p>"
        },
        "equippedBulk": {
            "value": ""
        },
        "hardness": 0,
        "hp": {
            "brokenThreshold": 0,
            "max": 0,
            "value": 0
        },
        "level": {
            "value": 15
        },
        "negateBulk": {
            "value": "0"
        },
        "preciousMaterial": {
            "value": null
        },
        "preciousMaterialGrade": {
            "value": null
        },
        "price": {
            "value": {
                "gp": 6000
            }
        },
        "quantity": 1,
        "rules": [],
        "size": "med",
        "source": {
            "value": "Pathfinder Lost Omens: Knights of Lastwall"
        },
        "stackGroup": "",
        "traits": {
            "custom": "",
            "rarity": "uncommon",
            "value": [
                "conjuration",
                "divine",
                "good",
                "magical"
            ]
        },
        "usage": {
            "value": "held-in-one-hand"
        },
        "weight": {
            "value": "-"
        }
    },
    "img": "systems/pf2e/icons/default-icons/equipment.svg",
    "name": "Busine of Divine Reinforcements",
    "type": "equipment"
}
