{
    "_id": "ydpA0pz0pPNqIUXU",
    "data": {
        "baseItem": null,
        "containerId": null,
        "description": {
            "value": "<p>These special straps and weightings fit over a shield or buckler, but not a tower shield. They are designed to let you doff and throw the shield in one swift movement. You can quickly remove the shield by spending a free action as part of the Strike to throw the shield. When thrown in this way, the shield is a martial thrown weapon that deals 1d6 bludgeoning damage and has the thrown 20 feet trait. A shield with the throwing shield attachment can't have any attached weapons, such as shield spikes or a shield boss, and the adjustments to make it more aerodynamic make it slightly less sturdy, reducing its Hardness by 1.</p>"
        },
        "equippedBulk": {
            "value": ""
        },
        "hardness": 0,
        "hp": {
            "brokenThreshold": 0,
            "max": 0,
            "value": 0
        },
        "level": {
            "value": 1
        },
        "negateBulk": {
            "value": "0"
        },
        "preciousMaterial": {
            "value": null
        },
        "preciousMaterialGrade": {
            "value": null
        },
        "price": {
            "value": {
                "gp": 5
            }
        },
        "quantity": 1,
        "rules": [
            {
                "category": "shield",
                "damage": {
                    "base": {
                        "damageType": "bludgeoning",
                        "dice": 1,
                        "die": "d6"
                    }
                },
                "group": "shield",
                "key": "Strike",
                "range": 20,
                "traits": [
                    "thrown-20"
                ]
            }
        ],
        "size": "med",
        "source": {
            "value": "Pathfinder Lost Omens: Knights of Lastwall"
        },
        "stackGroup": "",
        "traits": {
            "custom": "",
            "rarity": "uncommon",
            "value": [
                "adjustment"
            ]
        },
        "usage": {
            "value": "applied-to-buckler-shield"
        },
        "weight": {
            "value": "-"
        }
    },
    "img": "systems/pf2e/icons/default-icons/equipment.svg",
    "name": "Throwing Shield",
    "type": "equipment"
}
