{
    "_id": "92JNBuY5pfFmywOd",
    "data": {
        "ability": {
            "value": ""
        },
        "area": {
            "areaType": "",
            "value": ""
        },
        "category": {
            "value": "spell"
        },
        "components": {
            "focus": false,
            "material": false,
            "somatic": false,
            "verbal": true
        },
        "cost": {
            "value": ""
        },
        "damage": {
            "value": {}
        },
        "description": {
            "value": "<p><strong>Trigger</strong> A shield within range would be reduced to 0 Hit Points by a damaging effect</p>\n<p><strong>Requirements</strong> The triggering shield had more than 1 Hit Point before taking damage.</p>\n<hr />\n<p>You hold a shield together with the power of your magic, forcing wood and steel to fuse back together. The shield remains at 1 Hit Point and isn't destroyed. Its construction is weakened until someone takes the time to repair it, preventing <em>desperate repair</em> or a similar ability from saving the same shield until your next daily preparations.</p>"
        },
        "duration": {
            "value": ""
        },
        "hasCounteractCheck": {
            "value": false
        },
        "level": {
            "value": 5
        },
        "location": {
            "value": ""
        },
        "materials": {
            "value": ""
        },
        "range": {
            "value": "60 feet"
        },
        "rules": [],
        "save": {
            "basic": "",
            "value": ""
        },
        "school": {
            "value": "transmutation"
        },
        "source": {
            "value": "Pathfinder Lost Omens: Knights of Lastwall"
        },
        "spellType": {
            "value": "utility"
        },
        "sustained": {
            "value": false
        },
        "target": {
            "value": "1 shield"
        },
        "time": {
            "value": "reaction"
        },
        "traditions": {
            "custom": "",
            "value": [
                "arcane",
                "primal"
            ]
        },
        "traits": {
            "custom": "",
            "rarity": "uncommon",
            "value": []
        }
    },
    "img": "systems/pf2e/icons/default-icons/spell.svg",
    "name": "Desperate Repair",
    "type": "spell"
}
