{
    "_id": "kREpsv78anJpIiq2",
    "data": {
        "ability": {
            "value": ""
        },
        "area": {
            "areaType": "",
            "value": ""
        },
        "category": {
            "value": "spell"
        },
        "components": {
            "focus": false,
            "material": true,
            "somatic": true,
            "verbal": true
        },
        "cost": {
            "value": ""
        },
        "damage": {
            "value": {}
        },
        "description": {
            "value": "<p>You examine the remains or spiritual residue of a destroyed undead creature to locate that undead's creator, perhaps a necromancer or vampire. If the creator is within range, you can sense the direction to them. If the creator is within 100 feet, you sense their presence within 100 feet, and the spell ends; you can't further home in on their location. If there's lead or running water between you and the undead's creator, this spell can't locate them. This spell fails automatically if the undead doesn't have a specific creator or the specific creator isn't on the same plane.</p>"
        },
        "duration": {
            "value": "sustained"
        },
        "hasCounteractCheck": {
            "value": false
        },
        "level": {
            "value": 4
        },
        "location": {
            "value": ""
        },
        "materials": {
            "value": ""
        },
        "range": {
            "value": "1 mile"
        },
        "rules": [],
        "save": {
            "basic": "",
            "value": ""
        },
        "school": {
            "value": "divination"
        },
        "source": {
            "value": "Pathfinder Lost Omens: Knights of Lastwall"
        },
        "spellType": {
            "value": "utility"
        },
        "sustained": {
            "value": false
        },
        "target": {
            "value": "1 destroyed undead"
        },
        "time": {
            "value": "10 minutes"
        },
        "traditions": {
            "custom": "",
            "value": [
                "arcane",
                "divine",
                "occult"
            ]
        },
        "traits": {
            "custom": "",
            "rarity": "rare",
            "value": [
                "detection"
            ]
        }
    },
    "img": "systems/pf2e/icons/default-icons/spell.svg",
    "name": "Detect Creator",
    "type": "spell"
}
