{
    "_id": "5LGDygjRxURUOKGR",
    "data": {
        "ability": {
            "value": ""
        },
        "area": {
            "areaType": "line",
            "value": "120"
        },
        "category": {
            "value": "spell"
        },
        "components": {
            "focus": false,
            "material": false,
            "somatic": true,
            "verbal": true
        },
        "cost": {
            "value": ""
        },
        "damage": {
            "value": {
                "fcjtz4q0zrtvmtro": {
                    "applyMod": false,
                    "type": {
                        "categories": [],
                        "subtype": "",
                        "value": "good"
                    },
                    "value": "5d10"
                }
            }
        },
        "description": {
            "value": "<p>You fire a beam of blinding light from your outstretched hands. The beam deals 5d10 good damage. On a failed saving throw, a creature becomes @Compendium[pf2e.conditionitems.Dazzled]{Dazzled} for 1 round, or dazzled for 4 rounds on a critical failure.</p>\n<p>If the light passes through an area of magical darkness or targets a creature affected by magical darkness, radiant beam attempts to counteract the darkness. If you need to determine whether the light passes through an area of darkness, draw a line between yourself and the target.</p>\n<hr />\n<p><strong>Heightened (+1)</strong> The damage increases by 1d10.</p>"
        },
        "duration": {
            "value": ""
        },
        "hasCounteractCheck": {
            "value": true
        },
        "heightening": {
            "damage": {
                "fcjtz4q0zrtvmtro": "1d10"
            },
            "interval": 1,
            "type": "interval"
        },
        "level": {
            "value": 4
        },
        "location": {
            "value": ""
        },
        "materials": {
            "value": ""
        },
        "range": {
            "value": ""
        },
        "rules": [],
        "save": {
            "basic": "basic",
            "value": "reflex"
        },
        "school": {
            "value": "evocation"
        },
        "source": {
            "value": "Pathfinder Lost Omens: Knights of Lastwall"
        },
        "spellType": {
            "value": "save"
        },
        "sustained": {
            "value": false
        },
        "target": {
            "value": ""
        },
        "time": {
            "value": "2"
        },
        "traditions": {
            "custom": "",
            "value": [
                "divine",
                "primal"
            ]
        },
        "traits": {
            "custom": "",
            "rarity": "uncommon",
            "value": [
                "good",
                "light"
            ]
        }
    },
    "img": "systems/pf2e/icons/default-icons/spell.svg",
    "name": "Radiant Beam",
    "type": "spell"
}
