{
    "_id": "ZJOQBqkNErZu1QAa",
    "data": {
        "ability": {
            "value": ""
        },
        "area": {
            "areaType": "",
            "value": ""
        },
        "category": {
            "value": "spell"
        },
        "components": {
            "focus": false,
            "material": true,
            "somatic": true,
            "verbal": true
        },
        "cost": {
            "value": ""
        },
        "damage": {
            "value": {
                "31ztnkdh2g12fivc": {
                    "applyMod": false,
                    "type": {
                        "categories": [],
                        "subtype": "",
                        "value": "positive"
                    },
                    "value": "1d8"
                },
                "9oaina411wu1igyn": {
                    "applyMod": false,
                    "type": {
                        "categories": [],
                        "subtype": "",
                        "value": "good"
                    },
                    "value": "1d8"
                }
            }
        },
        "description": {
            "value": "<p>You create a translucent wall of light, which draws power from the celestial realms. You create either a 5-foot-thick wall in a straight line up to 60 feet long and 10 feet high or a 5-foot-thick, 10-foot-radius ring with the same height. The wall sheds bright light for 20 feet on each side and dim light for the next 20 feet.</p>\n<p>If the light passes through an area of magical darkness or targets a creature affected by magical darkness, wall of virtue attempts to counteract the darkness.</p>\n<p>Any creature that crosses the wall or is occupying the wall's area at the start of its turn takes 1d8 good damage and 1d8 positive damage.</p>\n<hr />\n<p><strong>Heightened (+2)</strong> The good damage increases by 1d8, and the positive damage increases by 1d8.</p>"
        },
        "duration": {
            "value": "1 minute"
        },
        "hasCounteractCheck": {
            "value": true
        },
        "heightening": {
            "damage": {
                "31ztnkdh2g12fivc": "1d8",
                "9oaina411wu1igyn": "1d8"
            },
            "interval": 2,
            "type": "interval"
        },
        "level": {
            "value": 3
        },
        "location": {
            "value": ""
        },
        "materials": {
            "value": ""
        },
        "range": {
            "value": "120 feet"
        },
        "rules": [],
        "save": {
            "basic": "",
            "value": ""
        },
        "school": {
            "value": "evocation"
        },
        "source": {
            "value": "Pathfinder Lost Omens: Knights of Lastwall"
        },
        "spellType": {
            "value": "utility"
        },
        "sustained": {
            "value": false
        },
        "target": {
            "value": ""
        },
        "time": {
            "value": "2"
        },
        "traditions": {
            "custom": "",
            "value": [
                "arcane",
                "divine"
            ]
        },
        "traits": {
            "custom": "",
            "rarity": "uncommon",
            "value": [
                "light"
            ]
        }
    },
    "img": "systems/pf2e/icons/default-icons/spell.svg",
    "name": "Wall of Virtue",
    "type": "spell"
}
